{
    "creationDate": "2023.10.11 14:06:03",
    "durationInS": 3,
    "producedAssets": [
        "8e306c84-5777-4f5e-8a80-b68bfd20a780",
        "7c013b84-8ca5-4228-a11b-27bae70a5690",
        "72a93f11-2df1-4c09-9a12-fce5c752d3ac",
        "009eb1e8-dc71-4061-a205-e6ff21bc1c53",
        "d52ad1ed-1e10-481b-a3f7-6b8d7d98c47c",
        "6f2e4934-4225-4d6c-b16e-d23bfd8159cf",
        "b9694e07-f9eb-46a6-abdb-a0d7515d54ca",
        "5b4ddac0-3552-4ac0-84b0-4a9066da65b5",
        "d9f0f990-2131-4706-ada4-a280587d37f1",
        "ae579678-7144-4862-9b0d-e90549ab6759",
        "5b8c7a6a-3404-4fe6-a7d8-1d4438f7cea7",
        "9fa3c1e8-174d-48bb-87a4-1c424297b074"
    ],
    "log": {
        "messages": [
            {
                "message": "***** Start Uml To C Generator v100 *****\n",
                "source": "UML to C v100",
                "status": "INFO",
                "timestamp": "2023.10.11 14:06:05"
            },
            {
                "message": "Create type: Type_UUID_SYSML_Datatype_SysML_dataType.Boolean from typeRef: http://www.omg.org/spec/SysML/20181001/SysML.xmi#SysML_dataType.Boolean referentPath:SysML::Libraries::PrimitiveValueTypes::Boolean\n",
                "source": "UML to C v100",
                "status": "INFO",
                "timestamp": "2023.10.11 14:06:06"
            },
            {
                "message": "Create type: Type_UUID_SYSML_Datatype_SysML_dataType.Integer from typeRef: http://www.omg.org/spec/SysML/20181001/SysML.xmi#SysML_dataType.Integer referentPath:SysML::Libraries::PrimitiveValueTypes::Integer\n",
                "source": "UML to C v100",
                "status": "INFO",
                "timestamp": "2023.10.11 14:06:06"
            },
            {
                "message": "Create type: Type_UUID_SYSML_Datatype_SysML_dataType.Real from typeRef: http://www.omg.org/spec/SysML/20181001/SysML.xmi#SysML_dataType.Real referentPath:SysML::Libraries::PrimitiveValueTypes::Real\n",
                "source": "UML to C v100",
                "status": "INFO",
                "timestamp": "2023.10.11 14:06:06"
            },
            {
                "message": "***** Start of Contract Generation *****\n",
                "source": "UML to C v100",
                "status": "INFO",
                "timestamp": "2023.10.11 14:06:06"
            },
            {
                "message": "Generate HeadrestHeightButton_itf.h... \n",
                "source": "UML to C v100",
                "status": "INFO",
                "timestamp": "2023.10.11 14:06:06"
            },
            {
                "message": "Generate HeadrestHeightButton_itf.h... OK\n",
                "source": "UML to C v100",
                "status": "INFO",
                "timestamp": "2023.10.11 14:06:06"
            },
            {
                "message": "Generate HeadrestHeightButton_type.h... \n",
                "source": "UML to C v100",
                "status": "INFO",
                "timestamp": "2023.10.11 14:06:06"
            },
            {
                "message": "Generate HeadrestHeightButton_type.h... OK\n",
                "source": "UML to C v100",
                "status": "INFO",
                "timestamp": "2023.10.11 14:06:06"
            },
            {
                "message": "***** End of Contract Generation *****\n",
                "source": "UML to C v100",
                "status": "INFO",
                "timestamp": "2023.10.11 14:06:06"
            },
            {
                "message": "\n",
                "source": "UML to C v100",
                "status": "INFO",
                "timestamp": "2023.10.11 14:06:06"
            },
            {
                "message": "Check generator inputs...\n",
                "source": "UML to C v100",
                "status": "INFO",
                "timestamp": "2023.10.11 14:06:06"
            },
            {
                "message": "Check generator inputs... OK\n",
                "source": "UML to C v100",
                "status": "INFO",
                "timestamp": "2023.10.11 14:06:06"
            },
            {
                "message": "Read model SeatControlV3.mdxml...\n",
                "source": "UML to C v100",
                "status": "INFO",
                "timestamp": "2023.10.11 14:06:06"
            },
            {
                "message": "Project Model\n",
                "source": "UML to C v100",
                "status": "INFO",
                "timestamp": "2023.10.11 14:06:06"
            },
            {
                "message": "\tPackage 01 - Specification system\n",
                "source": "UML to C v100",
                "status": "INFO",
                "timestamp": "2023.10.11 14:06:06"
            },
            {
                "message": "\t\tPackage Interior\n",
                "source": "UML to C v100",
                "status": "INFO",
                "timestamp": "2023.10.11 14:06:06"
            },
            {
                "message": "\t\t\tPackage Infotainment\n",
                "source": "UML to C v100",
                "status": "INFO",
                "timestamp": "2023.10.11 14:06:06"
            },
            {
                "message": "\t\t\t\tPackage Control & Display\n",
                "source": "UML to C v100",
                "status": "INFO",
                "timestamp": "2023.10.11 14:06:06"
            },
            {
                "message": "\t\t\t\t\tPackage Air Conditioning\n",
                "source": "UML to C v100",
                "status": "INFO",
                "timestamp": "2023.10.11 14:06:06"
            },
            {
                "message": "\t\t\t\t\tPackage Radio\n",
                "source": "UML to C v100",
                "status": "INFO",
                "timestamp": "2023.10.11 14:06:06"
            },
            {
                "message": "\t\t\t\t\tPackage Setting\n",
                "source": "UML to C v100",
                "status": "INFO",
                "timestamp": "2023.10.11 14:06:06"
            },
            {
                "message": "\t\t\t\t\tPackage Navigation\n",
                "source": "UML to C v100",
                "status": "INFO",
                "timestamp": "2023.10.11 14:06:06"
            },
            {
                "message": "\t\t\t\t\tPackage Seats\n",
                "source": "UML to C v100",
                "status": "INFO",
                "timestamp": "2023.10.11 14:06:06"
            },
            {
                "message": "\t\t\t\t\t\tUMLClass Display\n",
                "source": "UML to C v100",
                "status": "INFO",
                "timestamp": "2023.10.11 14:06:06"
            },
            {
                "message": "\t\t\t\t\t\tUMLClass Access\n",
                "source": "UML to C v100",
                "status": "INFO",
                "timestamp": "2023.10.11 14:06:06"
            },
            {
                "message": "\t\t\t\t\t\tUMLClass Position Control\n",
                "source": "UML to C v100",
                "status": "INFO",
                "timestamp": "2023.10.11 14:06:06"
            },
            {
                "message": "\t\t\t\t\t\tUMLClass Customization\n",
                "source": "UML to C v100",
                "status": "INFO",
                "timestamp": "2023.10.11 14:06:06"
            },
            {
                "message": "\t\t\t\t\t\tUMLClass Compatibility\n",
                "source": "UML to C v100",
                "status": "INFO",
                "timestamp": "2023.10.11 14:06:06"
            },
            {
                "message": "\t\t\t\t\t\tUMLClass Feedback\n",
                "source": "UML to C v100",
                "status": "INFO",
                "timestamp": "2023.10.11 14:06:06"
            },
            {
                "message": "\t\t\t\t\t\tUMLClass Safety\n",
                "source": "UML to C v100",
                "status": "INFO",
                "timestamp": "2023.10.11 14:06:06"
            },
            {
                "message": "\tPackage 02 - Specification software\n",
                "source": "UML to C v100",
                "status": "INFO",
                "timestamp": "2023.10.11 14:06:06"
            },
            {
                "message": "\t\tPackage Control a Display Specifications\n",
                "source": "UML to C v100",
                "status": "INFO",
                "timestamp": "2023.10.11 14:06:06"
            },
            {
                "message": "\t\t\tPackage Seat Control Interface\n",
                "source": "UML to C v100",
                "status": "INFO",
                "timestamp": "2023.10.11 14:06:06"
            },
            {
                "message": "\t\t\t\tUMLClass Seat Position Control\n",
                "source": "UML to C v100",
                "status": "INFO",
                "timestamp": "2023.10.11 14:06:06"
            },
            {
                "message": "\t\t\t\t\tUMLClass adjust forward/backward position of the seat\n",
                "source": "UML to C v100",
                "status": "INFO",
                "timestamp": "2023.10.11 14:06:06"
            },
            {
                "message": "\t\t\t\t\tUMLClass adjust tilt of the seat\n",
                "source": "UML to C v100",
                "status": "INFO",
                "timestamp": "2023.10.11 14:06:06"
            },
            {
                "message": "\t\t\t\t\tUMLClass adjust up/down position of the seat\n",
                "source": "UML to C v100",
                "status": "INFO",
                "timestamp": "2023.10.11 14:06:06"
            },
            {
                "message": "\t\t\t\t\tUMLClass define custom user seat adjustment profile\n",
                "source": "UML to C v100",
                "status": "INFO",
                "timestamp": "2023.10.11 14:06:06"
            },
            {
                "message": "\t\t\t\t\tUMLClass have a visual feedback of seat position\n",
                "source": "UML to C v100",
                "status": "INFO",
                "timestamp": "2023.10.11 14:06:06"
            },
            {
                "message": "\t\t\t\t\tUMLClass memorize my seat position configuration\n",
                "source": "UML to C v100",
                "status": "INFO",
                "timestamp": "2023.10.11 14:06:06"
            },
            {
                "message": "\t\t\t\tUMLClass Lumbar Support Control\n",
                "source": "UML to C v100",
                "status": "INFO",
                "timestamp": "2023.10.11 14:06:06"
            },
            {
                "message": "\t\t\t\tUMLClass Seat Heating/Cooling Control\n",
                "source": "UML to C v100",
                "status": "INFO",
                "timestamp": "2023.10.11 14:06:06"
            },
            {
                "message": "\t\t\t\tUMLClass Memory Function Control\n",
                "source": "UML to C v100",
                "status": "INFO",
                "timestamp": "2023.10.11 14:06:06"
            },
            {
                "message": "\t\t\t\tUMLClass User Profiles Control\n",
                "source": "UML to C v100",
                "status": "INFO",
                "timestamp": "2023.10.11 14:06:06"
            },
            {
                "message": "\t\t\t\tUMLClass Seat Massage Control\n",
                "source": "UML to C v100",
                "status": "INFO",
                "timestamp": "2023.10.11 14:06:06"
            },
            {
                "message": "\t\t\t\tUMLClass Audio Feedback Control\n",
                "source": "UML to C v100",
                "status": "INFO",
                "timestamp": "2023.10.11 14:06:06"
            },
            {
                "message": "\t\t\t\tUMLClass Screen Layout Control\n",
                "source": "UML to C v100",
                "status": "INFO",
                "timestamp": "2023.10.11 14:06:06"
            },
            {
                "message": "\t\t\t\tUMLClass Language Control\n",
                "source": "UML to C v100",
                "status": "INFO",
                "timestamp": "2023.10.11 14:06:06"
            },
            {
                "message": "\t\t\t\tUMLClass Color Theme Control\n",
                "source": "UML to C v100",
                "status": "INFO",
                "timestamp": "2023.10.11 14:06:06"
            },
            {
                "message": "\t\t\tPackage Radio Control Interface\n",
                "source": "UML to C v100",
                "status": "INFO",
                "timestamp": "2023.10.11 14:06:06"
            },
            {
                "message": "\t\t\tPackage Air Conditioning Control Interface\n",
                "source": "UML to C v100",
                "status": "INFO",
                "timestamp": "2023.10.11 14:06:06"
            },
            {
                "message": "\t\t\t\tUMLClass TEST\n",
                "source": "UML to C v100",
                "status": "INFO",
                "timestamp": "2023.10.11 14:06:06"
            },
            {
                "message": "\tPackage 03 - Software Architecture\n",
                "source": "UML to C v100",
                "status": "INFO",
                "timestamp": "2023.10.11 14:06:06"
            },
            {
                "message": "\t\tUMLClass SeatSystem\n",
                "source": "UML to C v100",
                "status": "INFO",
                "timestamp": "2023.10.11 14:06:06"
            },
            {
                "message": "\t\t\tProperty null\n",
                "source": "UML to C v100",
                "status": "INFO",
                "timestamp": "2023.10.11 14:06:06"
            },
            {
                "message": "\t\t\tProperty null\n",
                "source": "UML to C v100",
                "status": "INFO",
                "timestamp": "2023.10.11 14:06:06"
            },
            {
                "message": "\t\t\tConnector null\n",
                "source": "UML to C v100",
                "status": "INFO",
                "timestamp": "2023.10.11 14:06:06"
            },
            {
                "message": "\t\t\t\tConnectorEnd null\n",
                "source": "UML to C v100",
                "status": "INFO",
                "timestamp": "2023.10.11 14:06:06"
            },
            {
                "message": "\t\t\t\tConnectorEnd null\n",
                "source": "UML to C v100",
                "status": "INFO",
                "timestamp": "2023.10.11 14:06:06"
            },
            {
                "message": "\t\t\tConnector null\n",
                "source": "UML to C v100",
                "status": "INFO",
                "timestamp": "2023.10.11 14:06:06"
            },
            {
                "message": "\t\t\t\tConnectorEnd null\n",
                "source": "UML to C v100",
                "status": "INFO",
                "timestamp": "2023.10.11 14:06:06"
            },
            {
                "message": "\t\t\t\tConnectorEnd null\n",
                "source": "UML to C v100",
                "status": "INFO",
                "timestamp": "2023.10.11 14:06:06"
            },
            {
                "message": "\t\tPackage Headrest\n",
                "source": "UML to C v100",
                "status": "INFO",
                "timestamp": "2023.10.11 14:06:06"
            },
            {
                "message": "\t\t\tUMLClass HeadrestController\n",
                "source": "UML to C v100",
                "status": "INFO",
                "timestamp": "2023.10.11 14:06:06"
            },
            {
                "message": "\t\t\t\tController\n",
                "source": "UML to C v100",
                "status": "INFO",
                "timestamp": "2023.10.11 14:06:06"
            },
            {
                "message": "\t\t\t\t\tRegion 0\n",
                "source": "UML to C v100",
                "status": "INFO",
                "timestamp": "2023.10.11 14:06:06"
            },
            {
                "message": "\t\t\t\t\t\tINITIAL_0\n",
                "source": "UML to C v100",
                "status": "INFO",
                "timestamp": "2023.10.11 14:06:06"
            },
            {
                "message": "\t\t\t\t\t\tidle\n",
                "source": "UML to C v100",
                "status": "INFO",
                "timestamp": "2023.10.11 14:06:06"
            },
            {
                "message": "\t\t\t\t\t\tentry / OpaqueBehavior: null\n",
                "source": "UML to C v100",
                "status": "INFO",
                "timestamp": "2023.10.11 14:06:06"
            },
            {
                "message": "\t\t\t\t\t\t\t/ controlVar=0;\n",
                "source": "UML to C v100",
                "status": "INFO",
                "timestamp": "2023.10.11 14:06:06"
            },
            {
                "message": "\t\t\t\t\t\tupDebounce\n",
                "source": "UML to C v100",
                "status": "INFO",
                "timestamp": "2023.10.11 14:06:06"
            },
            {
                "message": "\t\t\t\t\t\t\tRegion 1\n",
                "source": "UML to C v100",
                "status": "INFO",
                "timestamp": "2023.10.11 14:06:06"
            },
            {
                "message": "\t\t\t\t\t\tupRequest\n",
                "source": "UML to C v100",
                "status": "INFO",
                "timestamp": "2023.10.11 14:06:06"
            },
            {
                "message": "\t\t\t\t\t\tentry / OpaqueBehavior: null\n",
                "source": "UML to C v100",
                "status": "INFO",
                "timestamp": "2023.10.11 14:06:06"
            },
            {
                "message": "\t\t\t\t\t\t\t/ controlVar=1;\n",
                "source": "UML to C v100",
                "status": "INFO",
                "timestamp": "2023.10.11 14:06:06"
            },
            {
                "message": "\t\t\t\t\t\tdownDebounce\n",
                "source": "UML to C v100",
                "status": "INFO",
                "timestamp": "2023.10.11 14:06:06"
            },
            {
                "message": "\t\t\t\t\t\tdownRequest\n",
                "source": "UML to C v100",
                "status": "INFO",
                "timestamp": "2023.10.11 14:06:06"
            },
            {
                "message": "\t\t\t\t\t\tentry / OpaqueBehavior: null\n",
                "source": "UML to C v100",
                "status": "INFO",
                "timestamp": "2023.10.11 14:06:06"
            },
            {
                "message": "\t\t\t\t\t\t\t/ controlVar=-1;\n",
                "source": "UML to C v100",
                "status": "INFO",
                "timestamp": "2023.10.11 14:06:06"
            },
            {
                "message": "\t\t\t\t\t\tTransition INITIAL_0->idle\n",
                "source": "UML to C v100",
                "status": "INFO",
                "timestamp": "2023.10.11 14:06:06"
            },
            {
                "message": "\t\t\t\t\t\tTransition idle->upDebounce\n",
                "source": "UML to C v100",
                "status": "INFO",
                "timestamp": "2023.10.11 14:06:06"
            },
            {
                "message": "\t\t\t\t\t\t\tChangeEvent null\n",
                "source": "UML to C v100",
                "status": "INFO",
                "timestamp": "2023.10.11 14:06:06"
            },
            {
                "message": "\t\t\t\t\t\t\t/ \n",
                "source": "UML to C v100",
                "status": "INFO",
                "timestamp": "2023.10.11 14:06:06"
            },
            {
                "message": "\t\t\t\t\t\tTransition upDebounce->idle\n",
                "source": "UML to C v100",
                "status": "INFO",
                "timestamp": "2023.10.11 14:06:06"
            },
            {
                "message": "\t\t\t\t\t\t\tChangeEvent null\n",
                "source": "UML to C v100",
                "status": "INFO",
                "timestamp": "2023.10.11 14:06:06"
            },
            {
                "message": "\t\t\t\t\t\tTransition upDebounce->upRequest\n",
                "source": "UML to C v100",
                "status": "INFO",
                "timestamp": "2023.10.11 14:06:06"
            },
            {
                "message": "\t\t\t\t\t\t\tTimeEvent null\n",
                "source": "UML to C v100",
                "status": "INFO",
                "timestamp": "2023.10.11 14:06:06"
            },
            {
                "message": "\t\t\t\t\t\tTransition idle->downDebounce\n",
                "source": "UML to C v100",
                "status": "INFO",
                "timestamp": "2023.10.11 14:06:06"
            },
            {
                "message": "\t\t\t\t\t\t\tChangeEvent null\n",
                "source": "UML to C v100",
                "status": "INFO",
                "timestamp": "2023.10.11 14:06:06"
            },
            {
                "message": "\t\t\t\t\t\t\t/ \n",
                "source": "UML to C v100",
                "status": "INFO",
                "timestamp": "2023.10.11 14:06:06"
            },
            {
                "message": "\t\t\t\t\t\tTransition downDebounce->idle\n",
                "source": "UML to C v100",
                "status": "INFO",
                "timestamp": "2023.10.11 14:06:06"
            },
            {
                "message": "\t\t\t\t\t\t\tChangeEvent null\n",
                "source": "UML to C v100",
                "status": "INFO",
                "timestamp": "2023.10.11 14:06:06"
            },
            {
                "message": "\t\t\t\t\t\t\t/ \n",
                "source": "UML to C v100",
                "status": "INFO",
                "timestamp": "2023.10.11 14:06:06"
            },
            {
                "message": "\t\t\t\t\t\tTransition downDebounce->downRequest\n",
                "source": "UML to C v100",
                "status": "INFO",
                "timestamp": "2023.10.11 14:06:06"
            },
            {
                "message": "\t\t\t\t\t\t\tTimeEvent null\n",
                "source": "UML to C v100",
                "status": "INFO",
                "timestamp": "2023.10.11 14:06:06"
            },
            {
                "message": "\t\t\t\t\t\tTransition downRequest->idle\n",
                "source": "UML to C v100",
                "status": "INFO",
                "timestamp": "2023.10.11 14:06:06"
            },
            {
                "message": "\t\t\t\t\t\t\tChangeEvent null\n",
                "source": "UML to C v100",
                "status": "INFO",
                "timestamp": "2023.10.11 14:06:06"
            },
            {
                "message": "\t\t\t\t\t\t\t/ \n",
                "source": "UML to C v100",
                "status": "INFO",
                "timestamp": "2023.10.11 14:06:06"
            },
            {
                "message": "\t\t\t\t\t\tTransition upRequest->idle\n",
                "source": "UML to C v100",
                "status": "INFO",
                "timestamp": "2023.10.11 14:06:06"
            }
        ]
    },
    "progress": {
        "maximum": 1,
        "progress": 1
    },
    "returnCode": {
        "message": "Generation is OK",
        "value": 0
    },
    "returnedAssets": [
        "72a93f11-2df1-4c09-9a12-fce5c752d3ac",
        "5b4ddac0-3552-4ac0-84b0-4a9066da65b5"
    ],
    "status": "SUCCEEDED",
    "readOnlyProperties": [
        {
            "key": "jobId",
            "value": "0169b5e3-c978-41a7-91cc-9cb52074e788"
        },
        {
            "key": "licensing_feature",
            "value": "{\n  \"coefficient\" : 1,\n  \"feature\" : \"Component generation\"\n}"
        }
    ],
    "uuid": "37bbecee-7bd4-49bc-8514-a9223b6360e7",
    "description": "UML to C",
    "displayName": "UML to C",
    "objectIds": [
        "a4ba9a60-244c-47d0-ab7d-42bf54903622:_2022x_2_16600ad_1681797131995_617052_4265"
    ],
    "parameters": [],
    "properties": [
        {
            "key": "repositoryType",
            "value": "GitLab"
        },
        {
            "key": "repositoryHost",
            "value": "https://gitlab.com"
        },
        {
            "key": "repositoryProject",
            "value": "seat-control/seat-controller"
        },
        {
            "key": "repositoryBranch",
            "value": "main"
        },
        {
            "key": "repositoryCommitMessage",
            "value": "initial commit headRestHeightButton ##INPUTID:_2022x_2_16600ad_1681797131995_617052_4265##"
        },
        {
            "key": "repositoryCommitAuthor",
            "value": "a56"
        },
        {
            "key": "repositoryCommitDestination",
            "value": "headRestHeightButton"
        },
        {
            "key": "softwareLogicalItemId",
            "value": "37A0EC69D7510000650C031400041DAB"
        },
        {
            "key": "inputIds",
            "value": [
                "_2022x_2_16600ad_1681797131995_617052_4265"
            ]
        },
        {
            "key": "configurationId",
            "value": "_2024x_16600ad_1696941891823_703113_3253"
        }
    ],
    "type": {
        "uniqueIdentifier": "UML to C",
        "version": "100",
        "name": "UML to C"
    },
    "hasRepositoryProject": true
}